<svg id="aircondition" xmlns="http://www.w3.org/2000/svg" width="19.219" height="15.082" viewBox="0 0 19.219 15.082">
  <path id="Path_3" data-name="Path 3" d="M17.985,41.577a.884.884,0,0,0-.677,1.05.448.448,0,0,1-.021.309.467.467,0,0,1-.3.156c-.133.026-.464-.074-.768-.657l-1.558-3.112h2.5a2.023,2.023,0,0,0,2.022-2.462l-.541-2.777a2.694,2.694,0,0,0-2.569-2.121H3.152A2.693,2.693,0,0,0,.583,34.083L.042,36.858a2.08,2.08,0,0,0,.412,1.727,2.073,2.073,0,0,0,1.61.739H4.5L2.946,42.435c-.3.583-.636.685-.768.659a.468.468,0,0,1-.3-.157.449.449,0,0,1-.021-.31.884.884,0,0,0-1.728-.374A2.125,2.125,0,0,0,.4,43.908a2.19,2.19,0,0,0,1.436.918,1.986,1.986,0,0,0,.382.037,2.636,2.636,0,0,0,2.3-1.624s0,0,.006-.007L6.48,39.324H8.706v4.832l-.526-.491a.881.881,0,1,0-1.186,1.3l2.018,1.846a.885.885,0,0,0,1.206-.011l1.946-1.846a.884.884,0,0,0,.033-1.249.872.872,0,0,0-1.239-.033l-.444.431V39.324h2.169l1.957,3.909.006.01a2.634,2.634,0,0,0,2.3,1.622,1.984,1.984,0,0,0,.382-.037,2.191,2.191,0,0,0,1.436-.919,2.126,2.126,0,0,0,.273-1.654A.884.884,0,0,0,17.985,41.577ZM1.818,37.441a.293.293,0,0,1-.041-.251l.541-2.785a.948.948,0,0,1,.834-.7H16.068a.952.952,0,0,1,.834.7l.541,2.78a.285.285,0,0,1-.041.247.308.308,0,0,1-.246.079H2.064A.308.308,0,0,1,1.818,37.441Z" transform="translate(-0.001 -31.964)"/>
  <path id="Path_4" data-name="Path 4" d="M200.188,75.86h-1.428a.9.9,0,0,0,0,1.808h1.428a.9.9,0,0,0,0-1.808Z" transform="translate(-185.072 -73.019)"/>
</svg>
