<svg xmlns="http://www.w3.org/2000/svg" width="14.295" height="14.296" viewBox="0 0 14.295 14.296">
  <g id="airplane-flight" transform="translate(-0.025 0)">
    <path id="Path_2" data-name="Path 2" d="M13.793.035,12.28.723A.91.91,0,0,0,12.018.9L9.552,3.372,1.063,2.354A.5.5,0,0,0,.646,2.5l-.472.472a.5.5,0,0,0,.151.818L6.408,6.516,4.661,8.263H1.61a.51.51,0,0,0-.358.148L1,8.667a.5.5,0,0,0,.158.821l2.574,1.1,1.1,2.574a.5.5,0,0,0,.821.158l.256-.256a.5.5,0,0,0,.148-.358V9.658L7.8,7.911,10.532,14a.5.5,0,0,0,.818.151l.472-.472a.506.506,0,0,0,.145-.417L10.947,4.768,13.414,2.3a.89.89,0,0,0,.182-.262L14.284.526A.371.371,0,0,0,13.793.035Z" fill="#d21f27"/>
  </g>
</svg>
